Cyclistic
…
## Rename the columns to align with most recent naming system
(q4_2019 <- rename(q4_2019
                   ,ride_id = trip_id
                   ,rideable_type = bikeid 
                   ,started_at = start_time  
                   ,ended_at = end_time  
                   ,start_station_name = from_station_name 
                   ,start_station_id = from_station_id 
                   ,end_station_name = to_station_name 
                   ,end_station_id = to_station_id 
                   ,member_casual = usertype))

## # A tibble: 704,054 x 12
##     ride_id started_at          ended_at            rideable_type tripduration
##       <dbl> <dttm>              <dttm>                      <dbl>        <dbl>
##  1 25223640 2019-10-01 00:01:39 2019-10-01 00:17:20          2215          940
##  2 25223641 2019-10-01 00:02:16 2019-10-01 00:06:34          6328          258
##  3 25223642 2019-10-01 00:04:32 2019-10-01 00:18:43          3003          850
##  4 25223643 2019-10-01 00:04:32 2019-10-01 00:43:43          3275         2350
##  5 25223644 2019-10-01 00:04:34 2019-10-01 00:35:42          5294         1867
##  6 25223645 2019-10-01 00:04:38 2019-10-01 00:10:51          1891          373
##  7 25223646 2019-10-01 00:04:52 2019-10-01 00:22:45          1061         1072
##  8 25223647 2019-10-01 00:04:57 2019-10-01 00:29:16          1274         1458
##  9 25223648 2019-10-01 00:05:20 2019-10-01 00:29:18          6011         1437
## 10 25223649 2019-10-01 00:05:20 2019-10-01 02:23:46          2957         8306
## #  with 704,044 more rows, and 7 more variables: start_station_id <dbl>,
## #   start_station_name <chr>, end_station_id <dbl>, end_station_name <chr>,
## #   member_casual <chr>, gender <chr>, birthyear <dbl>

(q1_2018 <- rename(q1_2018
                   ,ride_id = '01 - Rental Details Rental ID'
                   ,rideable_type = '01 - Rental Details Bike ID'
                   ,started_at = '01 - Rental Details Local Start Time'
                   ,ended_at = '01 - Rental Details Local End Time'  
                   ,start_station_name = '03 - Rental Start Station Name' 
                   ,start_station_id = '03 - Rental Start Station ID' 
                   ,end_station_name = '02 - Rental End Station Name' 
                   ,end_station_id = '02 - Rental End Station ID'
                   ,member_casual = 'User Type'
                   ))

## # A tibble: 387,145 x 12
##     ride_id started_at          ended_at            rideable_type
##       <dbl> <dttm>              <dttm>                      <dbl>
##  1 17536702 2018-01-01 00:12:00 2018-01-01 00:17:23          3304
##  2 17536703 2018-01-01 00:41:35 2018-01-01 00:47:52          5367
##  3 17536704 2018-01-01 00:44:46 2018-01-01 01:33:10          4599
##  4 17536705 2018-01-01 00:53:10 2018-01-01 01:05:37          2302
##  5 17536706 2018-01-01 00:53:37 2018-01-01 00:56:40          3696
##  6 17536707 2018-01-01 00:56:15 2018-01-01 01:00:41          6298
##  7 17536708 2018-01-01 00:57:26 2018-01-01 01:02:40          1169
##  8 17536709 2018-01-01 01:00:29 2018-01-01 01:13:43          6351
##  9 17536710 2018-01-01 01:07:12 2018-01-01 01:31:53          1920
## 10 17536711 2018-01-01 01:07:54 2018-01-06 10:04:02          4783
## #  with 387,135 more rows, and 8 more variables:
## #   01 - Rental Details Duration In Seconds Uncapped <dbl>,
## #   start_station_id <dbl>, start_station_name <chr>, end_station_id <dbl>,
## #   end_station_name <chr>, member_casual <chr>, Member Gender <chr>,
## #   05 - Member Details Member Birthday Year <dbl>

(q4_2018 <- rename(q4_2018
                   ,ride_id = trip_id
                   ,rideable_type = bikeid 
                   ,started_at = start_time  
                   ,ended_at = end_time  
                   ,start_station_name = from_station_name 
                   ,start_station_id = from_station_id 
                   ,end_station_name = to_station_name 
                   ,end_station_id = to_station_id 
                   ,member_casual = usertype))

## # A tibble: 642,686 x 12
##     ride_id started_at          ended_at            rideable_type tripduration
##       <dbl> <dttm>              <dttm>                      <dbl>        <dbl>
##  1 20983530 2018-10-01 00:01:17 2018-10-01 00:29:35          4551         1698
##  2 20983531 2018-10-01 00:03:59 2018-10-01 00:10:55           847          416
##  3 20983532 2018-10-01 00:05:14 2018-10-01 00:14:08          6188          534
##  4 20983533 2018-10-01 00:05:48 2018-10-01 00:18:46          6372          778
##  5 20983534 2018-10-01 00:07:29 2018-10-01 00:25:51          1927         1102
##  6 20983535 2018-10-01 00:07:36 2018-10-01 00:11:25          2392          229
##  7 20983536 2018-10-01 00:08:09 2018-10-01 00:58:48           308         3039
##  8 20983537 2018-10-01 00:09:29 2018-10-01 00:15:23          1187          354
##  9 20983538 2018-10-01 00:09:33 2018-10-01 00:12:27          6247          174
## 10 20983539 2018-10-01 00:09:44 2018-10-01 00:21:06          3083          682
## #  with 642,676 more rows, and 7 more variables: start_station_id <dbl>,
## #   start_station_name <chr>, end_station_id <dbl>, end_station_name <chr>,
## #   member_casual <chr>, gender <chr>, birthyear <dbl>
…
